<?xml version="1.0" encoding="UTF-8"?>
<svg xmlns="http://www.w3.org/2000/svg" xmlns:xlink="http://www.w3.org/1999/xlink" width="180px" height="104px" viewBox="0 0 180 104" version="1.1">
<g id="surface1">
<path style=" stroke:none;fill-rule:nonzero;fill:rgb(100%,100%,100%);fill-opacity:1;" d="M 87.976562 2.375 L 62.21875 2.402344 L 62.21875 6.941406 L 109.984375 6.941406 L 112.238281 4.6875 C 114.367188 2.550781 114.460938 2.429688 114.101562 2.390625 C 113.890625 2.363281 102.125 2.351562 87.976562 2.375 Z M 87.976562 2.375 "/>
<path style=" stroke:none;fill-rule:nonzero;fill:rgb(100%,100%,100%);fill-opacity:1;" d="M 115.421875 8.035156 L 113.117188 10.332031 L 113.117188 57.941406 L 117.78125 57.941406 L 117.78125 31.839844 C 117.78125 17.488281 117.765625 5.742188 117.753906 5.742188 C 117.726562 5.742188 116.671875 6.769531 115.421875 8.035156 Z M 115.421875 8.035156 "/>
<path style=" stroke:none;fill-rule:nonzero;fill:rgb(100%,100%,100%);fill-opacity:1;" d="M 62.300781 11.828125 C 62.195312 12.09375 62.195312 15.59375 62.300781 15.980469 L 62.378906 16.289062 L 93.996094 16.289062 L 78.167969 32.148438 C 69.46875 40.867188 62.355469 48.0625 62.355469 48.128906 C 62.355469 48.328125 65.324219 51.265625 65.523438 51.265625 C 65.699219 51.265625 105.121094 11.855469 105.121094 11.695312 C 105.121094 11.65625 95.503906 11.613281 83.75 11.613281 C 64.390625 11.613281 62.378906 11.628906 62.300781 11.828125 Z M 62.300781 11.828125 "/>
<path style=" stroke:none;fill-rule:nonzero;fill:rgb(100%,100%,100%);fill-opacity:1;" d="M 88.695312 34.792969 C 77.796875 45.710938 68.882812 54.683594 68.882812 54.722656 C 68.882812 54.761719 69.601562 55.523438 70.480469 56.40625 L 72.078125 58.007812 L 103.921875 26.101562 L 103.921875 57.941406 L 108.585938 57.941406 L 108.585938 36.445312 C 108.585938 24.617188 108.558594 14.953125 108.546875 14.953125 C 108.519531 14.953125 99.578125 23.882812 88.695312 34.792969 Z M 88.695312 34.792969 "/>
<path style=" stroke:none;fill-rule:nonzero;fill:rgb(100%,100%,100%);fill-opacity:1;" d="M 75.476562 69.78125 C 74.613281 69.929688 74.050781 70.171875 73.691406 70.542969 C 73.1875 71.0625 72.878906 71.796875 72.878906 72.492188 C 72.878906 72.972656 72.839844 73.027344 72.558594 73.027344 C 72.375 73.027344 72.078125 73.082031 71.894531 73.160156 C 71.613281 73.265625 71.546875 73.375 71.546875 73.734375 C 71.546875 74.308594 71.746094 74.496094 72.375 74.496094 L 72.878906 74.496094 L 72.878906 81.4375 L 73.210938 81.597656 C 73.453125 81.703125 73.640625 81.703125 73.851562 81.609375 C 74.132812 81.476562 74.183594 81.34375 74.25 80.421875 C 74.304688 79.863281 74.34375 78.285156 74.34375 76.9375 L 74.34375 74.496094 L 75.410156 74.496094 C 76.316406 74.496094 76.488281 74.457031 76.609375 74.242188 C 77.035156 73.441406 76.554688 73.027344 75.171875 73.027344 L 74.199219 73.027344 L 74.292969 72.519531 C 74.464844 71.558594 74.664062 71.371094 75.785156 71.226562 C 76.503906 71.132812 76.742188 70.917969 76.742188 70.382812 C 76.742188 69.917969 76.195312 69.664062 75.476562 69.78125 Z M 75.476562 69.78125 "/>
<path style=" stroke:none;fill-rule:nonzero;fill:rgb(100%,100%,100%);fill-opacity:1;" d="M 8.714844 70.4375 C 7.953125 70.703125 7.246094 71.453125 6.96875 72.28125 C 6.769531 72.851562 6.726562 73.414062 6.726562 75.898438 C 6.726562 79.835938 6.941406 80.476562 8.460938 81.238281 C 9.246094 81.636719 9.285156 81.636719 11.457031 81.636719 C 13.828125 81.636719 14.375 81.53125 15.175781 80.929688 C 15.429688 80.742188 15.761719 80.289062 15.960938 79.847656 C 16.28125 79.15625 16.308594 78.941406 16.359375 76.550781 C 16.453125 72.546875 16.109375 71.304688 14.710938 70.609375 C 14.097656 70.316406 13.882812 70.289062 11.65625 70.261719 C 9.804688 70.238281 9.140625 70.277344 8.714844 70.4375 Z M 13.976562 71.917969 C 14.800781 72.332031 14.855469 72.585938 14.855469 75.964844 C 14.855469 80.195312 14.882812 80.167969 11.429688 80.167969 C 9.527344 80.167969 9.3125 80.144531 8.964844 79.890625 C 8.289062 79.382812 8.246094 79.15625 8.261719 75.882812 C 8.261719 72.667969 8.339844 72.28125 8.941406 71.945312 C 9.699219 71.546875 13.164062 71.53125 13.976562 71.917969 Z M 13.976562 71.917969 "/>
<path style=" stroke:none;fill-rule:nonzero;fill:rgb(100%,100%,100%);fill-opacity:1;" d="M 56.890625 70.476562 C 56.8125 70.652344 56.757812 72.640625 56.757812 76.015625 C 56.757812 81.746094 56.757812 81.703125 57.492188 81.703125 C 58.222656 81.703125 58.222656 81.746094 58.222656 75.910156 C 58.222656 71.917969 58.183594 70.503906 58.0625 70.382812 C 57.796875 70.117188 57.050781 70.183594 56.890625 70.476562 Z M 56.890625 70.476562 "/>
<path style=" stroke:none;fill-rule:nonzero;fill:rgb(100%,100%,100%);fill-opacity:1;" d="M 106.722656 71.410156 C 106.65625 71.558594 106.585938 71.972656 106.585938 72.347656 L 106.585938 73.027344 L 106.066406 73.027344 C 105.457031 73.027344 105.121094 73.292969 105.121094 73.816406 C 105.121094 74.320312 105.347656 74.496094 106 74.496094 L 106.5625 74.496094 L 106.613281 76.992188 C 106.667969 79.59375 106.789062 80.167969 107.359375 80.824219 C 107.878906 81.410156 109.71875 81.890625 110.304688 81.585938 C 110.503906 81.476562 110.585938 81.304688 110.585938 80.984375 C 110.585938 80.410156 110.425781 80.289062 109.519531 80.195312 C 109 80.128906 108.707031 80.023438 108.453125 79.769531 C 108.121094 79.433594 108.121094 79.394531 108.078125 76.964844 L 108.027344 74.496094 L 109.210938 74.496094 C 110.503906 74.496094 110.71875 74.402344 110.71875 73.816406 C 110.71875 73.226562 110.292969 73.027344 109.09375 73.027344 L 108.054688 73.027344 L 108.054688 72.253906 C 108.054688 71.824219 107.988281 71.410156 107.894531 71.316406 C 107.625 71.050781 106.878906 71.117188 106.722656 71.410156 Z M 106.722656 71.410156 "/>
<path style=" stroke:none;fill-rule:nonzero;fill:rgb(100%,100%,100%);fill-opacity:1;" d="M 141.65625 71.316406 C 141.5625 71.410156 141.496094 71.824219 141.496094 72.238281 L 141.496094 72.988281 L 140.882812 73.066406 C 140.148438 73.148438 139.988281 73.28125 140.003906 73.839844 C 140.015625 74.363281 140.203125 74.496094 140.9375 74.496094 L 141.496094 74.496094 L 141.496094 76.886719 C 141.496094 78.6875 141.546875 79.410156 141.695312 79.847656 C 142.066406 80.902344 142.867188 81.476562 144.199219 81.636719 C 144.839844 81.71875 145.011719 81.691406 145.226562 81.503906 C 145.785156 80.996094 145.425781 80.234375 144.613281 80.234375 C 143.933594 80.234375 143.242188 79.902344 143.09375 79.5 C 143.015625 79.300781 142.960938 78.101562 142.960938 76.820312 L 142.960938 74.496094 L 144.160156 74.496094 C 145.320312 74.496094 145.371094 74.480469 145.492188 74.160156 C 145.640625 73.761719 145.480469 73.226562 145.160156 73.105469 C 145.039062 73.066406 144.492188 73.027344 143.945312 73.027344 L 142.960938 73.027344 L 142.960938 72.347656 C 142.960938 71.4375 142.789062 71.15625 142.253906 71.15625 C 142.015625 71.15625 141.75 71.226562 141.65625 71.316406 Z M 141.65625 71.316406 "/>
<path style=" stroke:none;fill-rule:nonzero;fill:rgb(100%,100%,100%);fill-opacity:1;" d="M 19.679688 73.121094 C 19.546875 73.160156 19.386719 73.335938 19.304688 73.507812 C 19.238281 73.707031 19.1875 76.109375 19.1875 79.074219 C 19.1875 84.761719 19.210938 84.9375 19.890625 85.015625 C 20.570312 85.097656 20.652344 84.894531 20.652344 83.238281 L 20.652344 81.730469 L 22.890625 81.679688 C 24.980469 81.636719 25.179688 81.609375 25.792969 81.289062 C 26.328125 81.011719 26.515625 80.808594 26.847656 80.167969 C 27.234375 79.410156 27.246094 79.355469 27.234375 77.472656 C 27.207031 75.242188 27.058594 74.550781 26.421875 73.921875 C 25.847656 73.335938 25.019531 73.09375 23.648438 73.09375 C 22.289062 73.105469 21.730469 73.214844 21.132812 73.628906 C 20.71875 73.90625 20.652344 73.921875 20.652344 73.722656 C 20.652344 73.253906 20.210938 72.988281 19.679688 73.121094 Z M 24.820312 74.640625 C 25.660156 74.871094 25.78125 75.203125 25.78125 77.367188 C 25.78125 80.144531 25.675781 80.234375 22.488281 80.234375 L 20.652344 80.234375 L 20.652344 77.832031 C 20.652344 75.46875 20.652344 75.417969 20.972656 75.097656 C 21.144531 74.921875 21.515625 74.734375 21.796875 74.695312 C 22.089844 74.65625 22.410156 74.589844 22.515625 74.5625 C 22.996094 74.46875 24.355469 74.507812 24.820312 74.640625 Z M 24.820312 74.640625 "/>
<path style=" stroke:none;fill-rule:nonzero;fill:rgb(100%,100%,100%);fill-opacity:1;" d="M 32.015625 73.160156 C 30.191406 73.546875 29.632812 74.695312 29.738281 77.832031 C 29.792969 79.25 29.84375 79.636719 30.109375 80.15625 C 30.484375 80.945312 31.136719 81.382812 32.175781 81.585938 C 33.109375 81.757812 35.402344 81.664062 36.148438 81.425781 C 36.785156 81.210938 37.53125 80.394531 37.652344 79.78125 C 37.757812 79.167969 37.664062 78.953125 37.277344 78.875 C 36.785156 78.78125 36.492188 78.941406 36.253906 79.449219 C 35.972656 80.050781 35.441406 80.222656 33.800781 80.222656 C 32.203125 80.234375 31.65625 80.050781 31.375 79.382812 C 31.269531 79.113281 31.175781 78.699219 31.175781 78.433594 L 31.175781 77.964844 L 34.292969 77.964844 C 37 77.964844 37.425781 77.941406 37.585938 77.753906 C 37.707031 77.605469 37.757812 77.179688 37.746094 76.417969 C 37.730469 75.484375 37.679688 75.164062 37.386719 74.5625 C 37.078125 73.949219 36.917969 73.789062 36.28125 73.480469 C 35.613281 73.148438 35.359375 73.105469 34.054688 73.082031 C 33.242188 73.054688 32.324219 73.09375 32.015625 73.160156 Z M 35.347656 74.640625 C 35.933594 74.800781 36.199219 75.164062 36.265625 75.898438 L 36.304688 76.429688 L 33.722656 76.472656 L 31.136719 76.5 L 31.21875 75.949219 C 31.308594 75.242188 31.695312 74.722656 32.191406 74.617188 C 32.828125 74.46875 34.800781 74.480469 35.347656 74.640625 Z M 35.347656 74.640625 "/>
<path style=" stroke:none;fill-rule:nonzero;fill:rgb(100%,100%,100%);fill-opacity:1;" d="M 40.917969 73.28125 C 40.648438 73.546875 40.636719 73.679688 40.636719 77.417969 C 40.636719 81.265625 40.636719 81.289062 40.929688 81.492188 C 41.316406 81.757812 41.621094 81.757812 41.890625 81.492188 C 42.074219 81.316406 42.101562 80.835938 42.101562 78.3125 C 42.101562 75.042969 42.089844 75.097656 42.96875 74.761719 C 43.582031 74.523438 45.417969 74.441406 46.058594 74.617188 C 46.980469 74.871094 47.03125 75.082031 47.03125 78.367188 C 47.03125 80.996094 47.046875 81.183594 47.296875 81.4375 C 47.589844 81.730469 47.859375 81.773438 48.246094 81.570312 C 48.484375 81.4375 48.496094 81.265625 48.496094 78.445312 C 48.496094 75.242188 48.402344 74.640625 47.792969 73.976562 C 47.324219 73.46875 46.472656 73.160156 45.40625 73.09375 C 44.167969 73.027344 43.246094 73.214844 42.609375 73.628906 C 42.15625 73.921875 42.101562 73.933594 42.101562 73.734375 C 42.089844 73.121094 41.355469 72.839844 40.917969 73.28125 Z M 40.917969 73.28125 "/>
<path style=" stroke:none;fill-rule:nonzero;fill:rgb(100%,100%,100%);fill-opacity:1;" d="M 61.792969 73.171875 C 61.566406 73.292969 61.554688 73.640625 61.554688 77.367188 C 61.554688 81.25 61.566406 81.4375 61.808594 81.570312 C 62.195312 81.773438 62.460938 81.730469 62.753906 81.4375 C 63.007812 81.183594 63.019531 80.996094 63.019531 78.261719 C 63.019531 76.671875 63.074219 75.296875 63.125 75.203125 C 63.5 74.617188 66.269531 74.28125 67.148438 74.734375 C 67.855469 75.082031 67.9375 75.496094 67.9375 78.660156 C 67.949219 81.25 67.964844 81.4375 68.203125 81.570312 C 68.589844 81.773438 68.855469 81.730469 69.148438 81.4375 C 69.402344 81.183594 69.414062 80.996094 69.414062 78.648438 C 69.414062 77.273438 69.347656 75.816406 69.28125 75.417969 C 68.976562 73.816406 68.003906 73.09375 66.085938 73.09375 C 64.671875 73.09375 64.113281 73.214844 63.5 73.628906 L 63.019531 73.949219 L 62.941406 73.613281 C 62.886719 73.425781 62.714844 73.214844 62.527344 73.148438 C 62.128906 73 62.074219 73 61.792969 73.171875 Z M 61.792969 73.171875 "/>
<path style=" stroke:none;fill-rule:nonzero;fill:rgb(100%,100%,100%);fill-opacity:1;" d="M 79.089844 73.242188 C 78.902344 73.414062 78.875 73.988281 78.875 77.433594 C 78.875 81.25 78.886719 81.4375 79.128906 81.570312 C 79.515625 81.773438 79.78125 81.730469 80.074219 81.4375 C 80.328125 81.183594 80.339844 80.996094 80.339844 78.59375 C 80.339844 76.257812 80.367188 75.992188 80.605469 75.589844 C 80.953125 75.03125 81.792969 74.640625 82.9375 74.535156 C 83.898438 74.441406 84.164062 74.214844 84.019531 73.613281 C 83.898438 73.148438 83.390625 72.988281 82.527344 73.148438 C 81.738281 73.292969 81.417969 73.441406 80.792969 73.90625 L 80.367188 74.214844 L 80.289062 73.746094 C 80.21875 73.414062 80.101562 73.242188 79.859375 73.160156 C 79.40625 72.988281 79.328125 72.988281 79.089844 73.242188 Z M 79.089844 73.242188 "/>
<path style=" stroke:none;fill-rule:nonzero;fill:rgb(100%,100%,100%);fill-opacity:1;" d="M 87.335938 73.214844 C 86.496094 73.414062 86.015625 73.734375 85.667969 74.296875 C 85.324219 74.84375 85.324219 75.375 85.65625 75.5625 C 86.121094 75.804688 86.390625 75.710938 86.894531 75.136719 L 87.375 74.5625 L 88.972656 74.5625 C 90.691406 74.5625 91.132812 74.683594 91.386719 75.257812 C 91.730469 76.015625 91.71875 76.03125 89.492188 76.03125 C 87.070312 76.03125 86.601562 76.125 86.003906 76.644531 C 85.445312 77.140625 85.230469 77.78125 85.242188 78.902344 C 85.257812 80.796875 86.015625 81.542969 88 81.679688 C 89.28125 81.757812 90.347656 81.542969 91.039062 81.089844 C 91.425781 80.835938 91.53125 80.808594 91.53125 80.96875 C 91.53125 81.25 92.011719 81.703125 92.316406 81.703125 C 92.957031 81.703125 92.996094 81.476562 92.996094 78.378906 C 92.996094 76.566406 92.945312 75.296875 92.851562 75.015625 C 92.597656 74.28125 92.078125 73.679688 91.425781 73.402344 C 90.679688 73.066406 88.347656 72.960938 87.335938 73.214844 Z M 91.53125 78.3125 C 91.53125 79.089844 91.492188 79.234375 91.160156 79.570312 C 90.917969 79.796875 90.53125 79.996094 90.09375 80.089844 C 89.160156 80.289062 87.546875 80.277344 87.136719 80.0625 C 86.722656 79.847656 86.523438 79.007812 86.734375 78.246094 C 86.921875 77.539062 87.203125 77.460938 89.640625 77.445312 L 91.53125 77.433594 Z M 91.53125 78.3125 "/>
<path style=" stroke:none;fill-rule:nonzero;fill:rgb(100%,100%,100%);fill-opacity:1;" d="M 97.40625 73.160156 C 96.714844 73.308594 96.128906 73.816406 95.914062 74.46875 C 95.675781 75.203125 95.808594 76.632812 96.183594 77.152344 C 96.703125 77.875 97.195312 78.007812 99.566406 78.074219 C 101.617188 78.125 101.683594 78.140625 101.882812 78.445312 C 102.109375 78.808594 102.058594 79.753906 101.792969 80.023438 C 101.632812 80.183594 98.433594 80.316406 97.726562 80.183594 C 97.421875 80.117188 97.246094 79.984375 97.101562 79.648438 C 96.835938 79.113281 96.316406 78.953125 95.902344 79.300781 C 95.371094 79.730469 95.863281 80.917969 96.769531 81.398438 C 97.316406 81.691406 100.699219 81.8125 101.726562 81.585938 C 102.992188 81.304688 103.644531 80.167969 103.445312 78.621094 C 103.324219 77.765625 102.921875 77.164062 102.257812 76.832031 C 101.804688 76.605469 101.445312 76.578125 99.699219 76.566406 C 97.328125 76.566406 97.207031 76.511719 97.234375 75.484375 C 97.234375 75.148438 97.300781 74.800781 97.394531 74.710938 C 97.621094 74.480469 101.324219 74.429688 101.511719 74.65625 C 101.589844 74.75 101.777344 74.988281 101.9375 75.191406 C 102.257812 75.617188 102.578125 75.65625 102.992188 75.324219 C 103.257812 75.109375 103.269531 75.03125 103.136719 74.550781 C 102.992188 74 102.644531 73.585938 102.058594 73.28125 C 101.644531 73.066406 98.261719 72.988281 97.40625 73.160156 Z M 97.40625 73.160156 "/>
<path style=" stroke:none;fill-rule:nonzero;fill:rgb(100%,100%,100%);fill-opacity:1;" d="M 113.648438 73.121094 C 113.144531 73.308594 113.117188 73.507812 113.117188 77.390625 C 113.117188 80.996094 113.128906 81.183594 113.382812 81.4375 C 113.675781 81.730469 113.941406 81.773438 114.328125 81.570312 C 114.570312 81.4375 114.582031 81.265625 114.582031 78.902344 C 114.582031 77.445312 114.636719 76.21875 114.726562 76.003906 C 115.046875 75.136719 115.78125 74.695312 117.152344 74.550781 C 118.152344 74.441406 118.3125 74.335938 118.3125 73.746094 C 118.3125 73.375 118.246094 73.265625 117.980469 73.160156 C 117.273438 72.894531 115.6875 73.335938 115.019531 73.988281 L 114.582031 74.414062 L 114.582031 73.855469 C 114.582031 73.171875 114.25 72.90625 113.648438 73.121094 Z M 113.648438 73.121094 "/>
<path style=" stroke:none;fill-rule:nonzero;fill:rgb(100%,100%,100%);fill-opacity:1;" d="M 120.351562 73.160156 C 120.042969 73.28125 120.042969 73.308594 120.042969 76.203125 C 120.042969 79.449219 120.164062 80.183594 120.804688 80.796875 C 121.894531 81.839844 124.640625 82 125.960938 81.105469 C 126.414062 80.796875 126.441406 80.796875 126.441406 81.039062 C 126.441406 81.359375 126.785156 81.703125 127.121094 81.703125 C 127.253906 81.703125 127.492188 81.585938 127.640625 81.4375 C 127.890625 81.183594 127.90625 80.996094 127.90625 77.390625 C 127.90625 74.574219 127.867188 73.5625 127.746094 73.386719 C 127.480469 73.054688 126.917969 72.972656 126.652344 73.226562 C 126.464844 73.414062 126.441406 73.839844 126.441406 76.417969 C 126.441406 79.6875 126.453125 79.636719 125.574219 79.96875 C 124.960938 80.210938 123.121094 80.289062 122.484375 80.117188 C 121.5625 79.863281 121.511719 79.648438 121.511719 76.390625 C 121.511719 73.480469 121.46875 73.265625 120.910156 73.121094 C 120.765625 73.082031 120.511719 73.09375 120.351562 73.160156 Z M 120.351562 73.160156 "/>
<path style=" stroke:none;fill-rule:nonzero;fill:rgb(100%,100%,100%);fill-opacity:1;" d="M 132.996094 73.171875 C 132.0625 73.359375 131.515625 73.773438 131.128906 74.617188 C 130.808594 75.308594 130.78125 75.511719 130.78125 77.367188 C 130.769531 79.289062 130.78125 79.394531 131.144531 80.117188 C 131.4375 80.730469 131.621094 80.929688 132.183594 81.238281 C 132.769531 81.558594 133.0625 81.609375 134.289062 81.679688 C 136.632812 81.785156 137.792969 81.371094 138.257812 80.261719 C 138.484375 79.714844 138.378906 79.328125 137.964844 79.222656 C 137.511719 79.113281 137.191406 79.25 136.953125 79.675781 C 136.699219 80.128906 136.300781 80.234375 134.78125 80.234375 C 132.488281 80.234375 132.261719 79.996094 132.207031 77.578125 C 132.167969 74.84375 132.433594 74.496094 134.648438 74.496094 C 136.351562 74.496094 136.683594 74.574219 136.992188 75.109375 C 137.203125 75.484375 137.339844 75.5625 137.710938 75.5625 C 138.898438 75.5625 138.378906 73.816406 137.03125 73.28125 C 136.539062 73.09375 133.78125 73.011719 132.996094 73.171875 Z M 132.996094 73.171875 "/>
<path style=" stroke:none;fill-rule:nonzero;fill:rgb(100%,100%,100%);fill-opacity:1;" d="M 148.128906 73.171875 C 147.917969 73.292969 147.890625 73.585938 147.890625 76.269531 C 147.890625 77.980469 147.957031 79.449219 148.035156 79.753906 C 148.261719 80.582031 149.007812 81.265625 149.957031 81.503906 C 151.367188 81.863281 152.859375 81.703125 153.792969 81.089844 L 154.285156 80.769531 L 154.285156 81.105469 C 154.285156 81.679688 155.03125 81.890625 155.484375 81.4375 C 155.738281 81.183594 155.75 80.996094 155.75 77.417969 C 155.75 75.242188 155.699219 73.574219 155.617188 73.425781 C 155.457031 73.121094 154.886719 72.972656 154.550781 73.160156 C 154.300781 73.292969 154.285156 73.453125 154.285156 76.3125 C 154.285156 79.273438 154.285156 79.316406 153.980469 79.621094 C 153.417969 80.183594 151.222656 80.421875 150.15625 80.0625 C 149.382812 79.796875 149.328125 79.5 149.34375 76.378906 C 149.355469 74.320312 149.316406 73.5625 149.195312 73.402344 C 148.96875 73.105469 148.421875 72.988281 148.128906 73.171875 Z M 148.128906 73.171875 "/>
<path style=" stroke:none;fill-rule:nonzero;fill:rgb(100%,100%,100%);fill-opacity:1;" d="M 159.214844 73.292969 C 158.960938 73.546875 158.949219 73.734375 158.949219 77.367188 C 158.949219 80.996094 158.960938 81.183594 159.214844 81.4375 C 159.523438 81.746094 159.867188 81.785156 160.1875 81.53125 C 160.375 81.398438 160.402344 80.984375 160.441406 78.675781 C 160.480469 76.203125 160.507812 75.949219 160.761719 75.605469 C 161.132812 75.082031 162.066406 74.640625 163.011719 74.550781 C 163.917969 74.457031 164.183594 74.28125 164.183594 73.746094 C 164.183594 73.214844 163.8125 72.988281 163.078125 73.09375 C 162.054688 73.242188 161.492188 73.453125 160.949219 73.921875 L 160.414062 74.390625 L 160.414062 73.839844 C 160.414062 73.441406 160.347656 73.265625 160.160156 73.160156 C 159.773438 72.960938 159.507812 73 159.214844 73.292969 Z M 159.214844 73.292969 "/>
<path style=" stroke:none;fill-rule:nonzero;fill:rgb(100%,100%,100%);fill-opacity:1;" d="M 167.527344 73.160156 C 166.664062 73.347656 166.023438 73.839844 165.652344 74.601562 C 165.316406 75.28125 165.289062 75.445312 165.289062 77.285156 C 165.289062 79.460938 165.410156 79.996094 166.050781 80.71875 C 166.730469 81.503906 167.15625 81.625 169.339844 81.625 C 171.101562 81.636719 171.328125 81.609375 171.898438 81.332031 C 172.617188 80.96875 172.980469 80.542969 173.179688 79.796875 C 173.296875 79.355469 173.285156 79.25 173.070312 79.035156 C 172.765625 78.726562 172.285156 78.78125 172.007812 79.167969 C 171.273438 80.195312 171.351562 80.15625 169.78125 80.210938 C 168.140625 80.277344 167.304688 80.101562 167.007812 79.664062 C 166.917969 79.5 166.796875 79.046875 166.769531 78.660156 L 166.714844 77.964844 L 169.820312 77.964844 C 173.589844 77.964844 173.40625 78.046875 173.3125 76.363281 C 173.191406 74.308594 172.527344 73.425781 170.859375 73.160156 C 170.007812 73.011719 168.195312 73.011719 167.527344 73.160156 Z M 170.847656 74.640625 C 171.433594 74.800781 171.738281 75.203125 171.832031 75.964844 L 171.914062 76.5 L 169.367188 76.5 C 166.570312 76.5 166.609375 76.511719 166.808594 75.644531 C 166.941406 75.015625 167.144531 74.789062 167.664062 74.640625 C 168.234375 74.46875 170.234375 74.46875 170.847656 74.640625 Z M 170.847656 74.640625 "/>
<path style=" stroke:none;fill-rule:nonzero;fill:rgb(100%,100%,100%);fill-opacity:1;" d="M 51.054688 97.152344 C 51.09375 100.753906 51.109375 100.863281 51.363281 100.863281 C 51.613281 100.863281 51.628906 100.753906 51.667969 99.152344 L 51.707031 97.457031 L 53.09375 97.457031 C 54.480469 97.457031 54.691406 97.390625 54.546875 97.003906 C 54.480469 96.832031 54.226562 96.789062 53.082031 96.789062 L 51.695312 96.789062 L 51.695312 95.535156 C 51.695312 94.480469 51.734375 94.265625 51.921875 94.199219 C 52.042969 94.148438 52.90625 94.121094 53.828125 94.121094 C 54.746094 94.132812 55.570312 94.132812 55.664062 94.132812 C 55.773438 94.121094 55.824219 94 55.796875 93.8125 C 55.757812 93.519531 55.730469 93.519531 53.386719 93.480469 L 51.027344 93.453125 Z M 51.054688 97.152344 "/>
<path style=" stroke:none;fill-rule:nonzero;fill:rgb(100%,100%,100%);fill-opacity:1;" d="M 58.78125 93.707031 C 58.011719 94.082031 57.824219 94.574219 57.730469 96.535156 C 57.636719 98.472656 57.757812 99.449219 58.144531 100.023438 C 58.625 100.742188 59.007812 100.863281 60.886719 100.863281 C 63.6875 100.863281 63.9375 100.542969 63.953125 97.125 C 63.953125 94.773438 63.847656 94.335938 63.113281 93.800781 C 62.78125 93.558594 62.515625 93.519531 61.046875 93.480469 C 59.597656 93.453125 59.277344 93.480469 58.78125 93.707031 Z M 62.582031 94.375 C 62.753906 94.453125 62.941406 94.640625 63.019531 94.789062 C 63.179688 95.082031 63.234375 98.980469 63.085938 99.449219 C 62.925781 99.941406 62.355469 100.128906 60.902344 100.128906 C 58.625 100.128906 58.488281 99.96875 58.488281 97.21875 C 58.488281 94.816406 58.582031 94.5625 59.554688 94.199219 C 59.902344 94.066406 62.273438 94.199219 62.582031 94.375 Z M 62.582031 94.375 "/>
<path style=" stroke:none;fill-rule:nonzero;fill:rgb(100%,100%,100%);fill-opacity:1;" d="M 67.070312 93.640625 C 67.03125 93.746094 67.015625 95.121094 67.042969 96.699219 C 67.082031 99.355469 67.109375 99.609375 67.363281 99.941406 C 67.988281 100.796875 68.203125 100.863281 70.148438 100.863281 C 72.09375 100.863281 72.304688 100.796875 72.933594 99.941406 C 73.199219 99.59375 73.210938 99.394531 73.210938 96.550781 C 73.210938 93.695312 73.199219 93.519531 72.960938 93.480469 C 72.824219 93.453125 72.667969 93.507812 72.597656 93.613281 C 72.53125 93.707031 72.480469 95.042969 72.480469 96.5625 L 72.480469 99.355469 L 72.09375 99.742188 C 71.707031 100.128906 71.679688 100.128906 70.148438 100.128906 C 68.617188 100.128906 68.589844 100.128906 68.203125 99.742188 L 67.816406 99.355469 L 67.816406 96.617188 C 67.816406 95.109375 67.777344 93.785156 67.738281 93.667969 C 67.628906 93.398438 67.164062 93.386719 67.070312 93.640625 Z M 67.070312 93.640625 "/>
<path style=" stroke:none;fill-rule:nonzero;fill:rgb(100%,100%,100%);fill-opacity:1;" d="M 76.570312 93.546875 C 76.4375 93.679688 76.464844 100.570312 76.597656 100.769531 C 76.664062 100.875 76.824219 100.929688 76.957031 100.902344 C 77.195312 100.863281 77.210938 100.675781 77.25 97.871094 L 77.277344 94.894531 L 79.609375 97.914062 C 80.898438 99.566406 82.03125 100.929688 82.152344 100.929688 C 82.257812 100.929688 82.40625 100.769531 82.472656 100.582031 C 82.617188 100.222656 82.660156 94.015625 82.527344 93.667969 C 82.484375 93.546875 82.300781 93.453125 82.125 93.453125 L 81.804688 93.453125 L 81.78125 96.417969 L 81.738281 99.394531 L 79.433594 96.417969 C 77.277344 93.652344 76.863281 93.238281 76.570312 93.546875 Z M 76.570312 93.546875 "/>
<path style=" stroke:none;fill-rule:nonzero;fill:rgb(100%,100%,100%);fill-opacity:1;" d="M 85.871094 93.625 C 85.828125 93.71875 85.816406 95.375 85.828125 97.324219 L 85.871094 100.863281 L 87.933594 100.863281 C 90.398438 100.863281 90.867188 100.714844 91.371094 99.714844 C 91.664062 99.167969 91.679688 99.007812 91.640625 96.992188 C 91.597656 94.988281 91.585938 94.828125 91.277344 94.402344 C 90.71875 93.625 90.148438 93.453125 87.894531 93.453125 C 86.429688 93.453125 85.910156 93.492188 85.871094 93.625 Z M 90.09375 94.359375 C 90.785156 94.65625 90.933594 95.070312 90.960938 96.992188 C 90.984375 98.445312 90.945312 98.820312 90.746094 99.273438 C 90.414062 99.996094 90.011719 100.128906 88.121094 100.128906 L 86.601562 100.128906 L 86.601562 97.21875 C 86.601562 95.617188 86.628906 94.265625 86.667969 94.226562 C 86.800781 94.09375 89.734375 94.199219 90.09375 94.359375 Z M 90.09375 94.359375 "/>
<path style=" stroke:none;fill-rule:nonzero;fill:rgb(100%,100%,100%);fill-opacity:1;" d="M 96.820312 93.613281 C 96.78125 93.707031 96.117188 95.308594 95.328125 97.179688 C 94.089844 100.167969 93.945312 100.59375 94.117188 100.769531 C 94.4375 101.089844 94.648438 100.875 95.035156 99.914062 L 95.394531 98.992188 L 97.019531 99.019531 C 97.925781 99.035156 98.753906 99.046875 98.859375 99.046875 C 98.980469 99.058594 99.191406 99.394531 99.378906 99.863281 C 99.554688 100.300781 99.78125 100.730469 99.859375 100.796875 C 100.058594 100.957031 100.457031 100.835938 100.457031 100.609375 C 100.457031 100.527344 99.804688 98.898438 99.007812 96.992188 C 97.699219 93.867188 97.527344 93.519531 97.222656 93.480469 C 97.046875 93.453125 96.863281 93.519531 96.820312 93.613281 Z M 98.195312 97.019531 L 98.714844 98.257812 L 97.261719 98.257812 C 96.449219 98.257812 95.796875 98.21875 95.796875 98.152344 C 95.796875 98.097656 96.101562 97.285156 96.488281 96.351562 L 97.195312 94.640625 L 97.433594 95.214844 C 97.566406 95.535156 97.914062 96.351562 98.195312 97.019531 Z M 98.195312 97.019531 "/>
<path style=" stroke:none;fill-rule:nonzero;fill:rgb(100%,100%,100%);fill-opacity:1;" d="M 101.296875 93.667969 C 101.164062 94.027344 101.457031 94.132812 102.671875 94.160156 L 103.855469 94.1875 L 103.894531 97.40625 C 103.921875 100.0625 103.964844 100.664062 104.121094 100.796875 C 104.28125 100.929688 104.363281 100.929688 104.523438 100.796875 C 104.695312 100.664062 104.722656 100.101562 104.722656 97.40625 L 104.722656 94.175781 L 105.882812 94.175781 C 107.082031 94.1875 107.492188 94.054688 107.347656 93.667969 C 107.265625 93.480469 106.933594 93.453125 104.324219 93.453125 C 101.777344 93.453125 101.378906 93.480469 101.296875 93.667969 Z M 101.296875 93.667969 "/>
<path style=" stroke:none;fill-rule:nonzero;fill:rgb(100%,100%,100%);fill-opacity:1;" d="M 109.867188 93.746094 C 109.824219 93.921875 109.785156 95.496094 109.785156 97.269531 C 109.785156 100.636719 109.851562 101.050781 110.359375 100.847656 C 110.570312 100.769531 110.585938 100.476562 110.558594 97.136719 C 110.519531 93.558594 110.519531 93.519531 110.238281 93.480469 C 110.039062 93.453125 109.933594 93.535156 109.867188 93.746094 Z M 109.867188 93.746094 "/>
<path style=" stroke:none;fill-rule:nonzero;fill:rgb(100%,100%,100%);fill-opacity:1;" d="M 114.703125 93.71875 C 113.847656 94.175781 113.714844 94.65625 113.714844 97.191406 C 113.714844 99.167969 113.742188 99.449219 113.980469 99.863281 C 114.476562 100.703125 114.953125 100.863281 116.847656 100.863281 C 118.859375 100.863281 119.257812 100.703125 119.671875 99.769531 C 119.910156 99.234375 119.925781 98.941406 119.882812 96.925781 C 119.84375 94.414062 119.75 94.160156 118.832031 93.695312 C 118.152344 93.332031 115.382812 93.359375 114.703125 93.71875 Z M 118.566406 94.375 C 118.710938 94.453125 118.898438 94.65625 118.980469 94.800781 C 119.191406 95.203125 119.164062 99.234375 118.953125 99.582031 C 118.671875 100.046875 118.152344 100.15625 116.59375 100.101562 C 114.515625 100.046875 114.527344 100.0625 114.476562 97.484375 C 114.394531 94.292969 114.542969 94.121094 117.074219 94.199219 C 117.738281 94.214844 118.417969 94.292969 118.566406 94.375 Z M 118.566406 94.375 "/>
<path style=" stroke:none;fill-rule:nonzero;fill:rgb(100%,100%,100%);fill-opacity:1;" d="M 123.082031 93.679688 C 123.054688 93.8125 123.015625 95.429688 122.988281 97.257812 C 122.949219 100.195312 122.976562 100.621094 123.160156 100.78125 C 123.28125 100.875 123.457031 100.929688 123.574219 100.890625 C 123.734375 100.824219 123.773438 100.328125 123.800781 97.871094 L 123.839844 94.933594 L 126.160156 97.925781 C 128.492188 100.941406 128.878906 101.304688 129.039062 100.621094 C 129.078125 100.460938 129.089844 98.792969 129.078125 96.925781 L 129.039062 93.519531 L 128.371094 93.519531 L 128.304688 96.445312 L 128.238281 99.367188 L 125.972656 96.445312 C 123.734375 93.558594 123.230469 93.066406 123.082031 93.679688 Z M 123.082031 93.679688 "/>
</g>
</svg>
