<?xml version="1.0" encoding="utf-8"?>
<!-- Generator: Adobe Illustrator 25.3.1, SVG Export Plug-In . SVG Version: 6.00 Build 0)  -->
<svg version="1.1" id="Layer_1" xmlns="http://www.w3.org/2000/svg" xmlns:xlink="http://www.w3.org/1999/xlink" x="0px" y="0px"
	 width="180px" height="104px"  viewBox="0 0 180 104" style="enable-background:new 0 0 180 104;" xml:space="preserve">
<style type="text/css">
	.st0{fill:#FFFFFF;}
	.st1{opacity:0.56;fill:#FFFFFF;}
</style>
<g>
	<path class="st0" d="M61,90.1c-0.6,1.1-1,2.3-1,3.7c0,2.4,1.2,4.6,3.1,5.8c0.8-1.5,1.8-3.2,3.3-5.7C63.7,92.1,62.3,91.1,61,90.1z"
		/>
	<path class="st0" d="M74.1,94.1c-0.2,0.5-0.4,0.9-0.7,1.2c-1.1,1.2-2.8,1.3-4.1,0.5c-0.2-0.1-2-1.3-2-1.3c-1.9,2.7-2.9,4-3.9,5.3
		c1.1,0.7,2.3,1,3.7,1C70.8,100.9,73.9,97.9,74.1,94.1z"/>
	<path class="st0" d="M70.3,90.1c-1.2,1.8-1.4,2.1-2.4,3.5c0,0,1.7,1.1,1.9,1.2c0.8,0.5,2,0.4,2.7-0.4c0.2-0.3,0.4-0.6,0.5-1
		c0.1-0.6-0.1-1.5-0.9-2.1C71.9,91.1,70.3,90.1,70.3,90.1z"/>
	<path class="st0" d="M73.5,90.9c-1.1-2.5-3.6-4.2-6.5-4.2c-2.3,0-4.4,1.1-5.7,2.8c1.4,0.8,3.1,1.9,5.6,3.5c0.9-1.4,1.7-2.7,3-4.6
		c0,0,2.7,1.8,2.9,1.9C73.2,90.5,73.3,90.7,73.5,90.9z"/>
	<path class="st0" d="M60.3,88.7c0-0.5-0.4-0.9-0.9-0.9s-0.9,0.4-0.9,0.9s0.4,0.9,0.9,0.9C59.9,89.6,60.3,89.2,60.3,88.7z"/>
	<path class="st0" d="M62,85.8c-0.1-0.2-0.4-0.2-0.7-0.1L61,86.1l0.8,1L62,87l-0.2-0.4l0.2-0.1C62.1,86.3,62.2,86.1,62,85.8z
		 M61.7,86.3l-0.2,0.2l-0.3-0.4l0.2-0.2c0.1-0.1,0.3-0.1,0.4,0C61.9,86,61.8,86.1,61.7,86.3z"/>
	<path class="st0" d="M63.6,86c0.4-0.2,0.5-0.6,0.4-0.9c-0.2-0.3-0.5-0.5-0.9-0.3s-0.5,0.6-0.4,0.9C62.9,86,63.2,86.2,63.6,86z
		 M63.1,85c0.2-0.1,0.5,0,0.6,0.2s0,0.5-0.2,0.6s-0.5,0-0.6-0.2S62.9,85.1,63.1,85z"/>
	<polygon class="st0" points="65.7,85.2 65,85.3 64.8,84.2 64.5,84.3 64.8,85.6 65.7,85.4 	"/>
	<polygon class="st0" points="66.6,85.3 66.6,84.8 67.1,84 66.8,84 66.5,84.6 66.1,84 65.8,84 66.4,84.8 66.4,85.3 	"/>
	<polygon class="st0" points="68.1,85.4 68.3,84.3 68.7,84.3 68.7,84.1 67.6,84 67.6,84.2 68,84.2 67.9,85.3 	"/>
	<polygon class="st0" points="70.3,84.8 70.4,84.6 69.5,84.3 69.1,85.5 70,85.8 70.1,85.6 69.4,85.4 69.5,85.1 70.1,85.3 70.2,85.1
		69.5,84.9 69.6,84.6 	"/>
	<path class="st0" d="M71.8,85.2c-0.3-0.2-0.7-0.1-0.9,0.3c-0.2,0.3-0.1,0.7,0.3,0.9c0.2,0.1,0.4,0.1,0.6,0l-0.1-0.2
		c-0.1,0-0.3,0.1-0.4,0c-0.2-0.1-0.3-0.4-0.2-0.6c0.1-0.2,0.4-0.3,0.6-0.2c0.1,0.1,0.2,0.2,0.2,0.3l0.2-0.1
		C72.1,85.4,72,85.3,71.8,85.2z"/>
	<polygon class="st0" points="72.9,85.9 72.1,86.9 72.2,87.1 72.6,86.6 73.1,87.1 72.7,87.5 72.9,87.6 73.7,86.6 73.5,86.5
		73.2,86.9 72.7,86.5 73.1,86.1 	"/>
	<polygon class="st0" points="74.1,89 75.1,88.2 75,88.1 74.3,88.6 74.6,87.5 74.4,87.3 73.4,88.1 73.5,88.3 74.3,87.8 74,88.9 	"/>

		<rect x="74.4" y="89.3" transform="matrix(0.8944 -0.4473 0.4473 0.8944 -32.0637 43.0116)" class="st0" width="1.3" height="0.2"/>
	<path class="st0" d="M75.4,91.7l0.1-0.2c0.1,0,0.3,0,0.4,0c0.4-0.1,0.5-0.5,0.4-0.9s-0.5-0.6-0.9-0.4c-0.4,0.1-0.5,0.5-0.4,0.9
		c0,0.1,0.1,0.2,0.2,0.3l-0.1,0.2L75.4,91.7z M75.5,90.4c0.2-0.1,0.5,0,0.6,0.3c0.1,0.2,0,0.5-0.3,0.6c-0.1,0-0.2,0-0.2,0l0.1-0.3
		l-0.2-0.1l-0.1,0.3c-0.1-0.1-0.1-0.2-0.2-0.2C75.1,90.8,75.2,90.5,75.5,90.4z"/>
	<path class="st0" d="M76,93.3l0.7-0.1V93L76,93.1c-0.2,0-0.4-0.1-0.4-0.3s0.1-0.4,0.3-0.4l0.7-0.1v-0.2l-0.7,0.1
		c-0.4,0-0.5,0.3-0.5,0.6S75.7,93.3,76,93.3z"/>
	<polygon class="st0" points="75.4,95 75.7,95 75.7,94.2 76.1,94.3 76,94.9 76.2,94.9 76.3,94.3 76.6,94.3 76.6,95 76.8,95
		76.8,94.1 75.5,94 	"/>
	<polygon class="st0" points="61.3,101.7 61.5,101.8 62.2,100.8 62,100.6 	"/>
	<polygon class="st0" points="61.3,100 60.6,100.7 60.7,99.5 60.6,99.4 59.7,100.3 59.8,100.4 60.5,99.8 60.3,100.9 60.5,101.1
		61.4,100.2 	"/>
	<path class="st0" d="M59.6,98.4c0,0,0.1,0,0.2,0.1c0.1,0.1,0.1,0.3,0.1,0.4h0.2c0-0.2,0-0.4-0.1-0.6s-0.4-0.3-0.6-0.2
		c-0.2,0.1-0.2,0.3-0.1,0.6c0.1,0.2,0.1,0.3,0,0.4s-0.2,0-0.2-0.1C59,99,59,98.8,59,98.7h-0.2c0,0.2,0,0.3,0.1,0.5s0.4,0.3,0.6,0.2
		c0.2-0.1,0.2-0.3,0.1-0.6C59.5,98.6,59.5,98.5,59.6,98.4z"/>
	<polygon class="st0" points="59.3,97.2 59.2,97 58.2,97.5 58,97.1 57.8,97.2 58.3,98.1 58.5,98.1 58.3,97.7 	"/>

		<rect x="57.6" y="96.1" transform="matrix(0.9656 -0.2601 0.2601 0.9656 -23.0174 18.4623)" class="st0" width="1.3" height="0.2"/>
	<polygon class="st0" points="58.6,94.9 58.6,94.7 57.5,94.8 57.5,94.4 57.3,94.4 57.4,95.5 57.6,95.5 57.5,95.1 	"/>
	<path class="st0" d="M58.6,93.2c0-0.3-0.2-0.6-0.6-0.6h-0.7v0.2H58c0.2,0,0.4,0.1,0.4,0.4s-0.1,0.3-0.4,0.3h-0.7v0.2h0.8
		C58.4,93.8,58.6,93.6,58.6,93.2z"/>
	<polygon class="st0" points="57.7,90.8 57.4,91.8 57.6,91.9 57.7,91.5 58.8,91.8 58.9,91.5 57.8,91.2 57.9,90.8 	"/>
	<path class="st0" d="M64.6,101.9l-0.5-0.1l-0.4,1.3l0.5,0.1c0.5,0.2,0.9,0,1-0.4C65.4,102.3,65.1,102,64.6,101.9z M64.4,102.8
		L64.4,102.8l0.1-0.6h0.1c0.1,0.1,0.2,0.2,0.2,0.4C64.7,102.8,64.6,102.8,64.4,102.8z"/>
	<polygon class="st0" points="66,103.5 67.2,103.6 67.2,103.2 66.5,103.2 66.5,103 67.1,103.1 67.1,102.7 66.5,102.7 66.5,102.6
		67.2,102.6 67.2,102.2 66.1,102.2 	"/>
	<path class="st0" d="M69.6,101.8L69,102l0.4,1.3l0.4-0.1l-0.1-0.4h0.1c0.4-0.1,0.6-0.4,0.5-0.7C70.2,101.8,69.9,101.7,69.6,101.8z
		 M69.7,102.5L69.7,102.5l-0.2-0.3h0.1c0.1,0,0.2,0,0.2,0.1S69.8,102.5,69.7,102.5z"/>
	<path class="st0" d="M71,101.2l0.2,1.5l0.4-0.2v-0.2L72,102l0.1,0.1l0.4-0.2l-1.2-0.9L71,101.2z M71.8,101.8l-0.2,0.1l-0.1-0.4
		L71.8,101.8z"/>
	<path class="st0" d="M73.6,99.8c-0.1-0.1-0.2-0.1-0.3-0.1c-0.1,0-0.3,0.1-0.5,0.2l-0.5,0.5l0.9,1l0.3-0.3l-0.3-0.3l0.1-0.1l0.5,0.1
		l0.4-0.4l-0.6-0.1C73.8,100.2,73.8,100,73.6,99.8z M73.3,100.4L73.3,100.4l-0.3-0.1l0.1-0.1c0.1-0.1,0.2-0.1,0.2,0
		C73.4,100.2,73.4,100.3,73.3,100.4z"/>
	<rect x="74.2" y="98.5" transform="matrix(0.5917 -0.8062 0.8062 0.5917 -49.5533 100.56)" class="st0" width="0.5" height="1.4"/>
	<path class="st0" d="M75.7,97.3c-0.2-0.1-0.5,0-0.7,0.3c-0.1,0.1-0.1,0.1-0.2,0.1v-0.1c0.1-0.1,0.2-0.2,0.3-0.3L75,97
		c-0.2,0.1-0.3,0.2-0.4,0.5c-0.2,0.3-0.1,0.6,0.2,0.7c0.3,0.1,0.5-0.1,0.7-0.3c0.1-0.1,0.1-0.1,0.2-0.1c0,0,0,0,0,0.1
		c-0.1,0.1-0.2,0.3-0.4,0.4l0.2,0.4c0.2-0.1,0.4-0.3,0.5-0.5C76,97.7,76,97.4,75.7,97.3z"/>
	<rect x="80.8" y="90.7" class="st0" width="1.3" height="6"/>
	<path class="st0" d="M87.1,90.7h-2.5v6H86V95h1c1.4,0,2.5-0.7,2.5-2.1C89.5,91.6,88.6,90.7,87.1,90.7z M87,93.8h-1v-1.9h1
		c0.7,0,1.1,0.3,1.1,0.9S87.7,93.8,87,93.8z"/>
	<path class="st0" d="M96.3,90.7h-2.5v6h1.3V95h1c1.4,0,2.5-0.7,2.5-2.1C98.6,91.6,97.7,90.7,96.3,90.7z M96.2,93.8h-1.1v-1.9h1
		c0.7,0,1.1,0.3,1.1,0.9S96.8,93.8,96.2,93.8z"/>
	<path class="st0" d="M101.9,90.7l-2.6,6.1h1.4l0.6-1.4h2.6l0.6,1.4h1.4l-2.6-6.1H101.9z M101.7,94.3l0.8-2l0.8,2H101.7z"/>
	<path class="st0" d="M112.5,92.8c0-0.6-0.2-1.1-0.5-1.4c-0.4-0.4-1-0.6-1.8-0.6h-2.8v6.1h1.3V95h1l1.3,1.9h1.5l-1.5-2.2
		C111.9,94.4,112.5,93.7,112.5,92.8z M110.1,93.6h-1.4v-1.7h1.3c0.7,0,1.1,0.3,1.1,0.9C111.1,93.3,110.7,93.6,110.1,93.6z"/>
	<rect x="114.7" y="90.7" class="st0" width="1.3" height="6"/>
	<path class="st0" d="M120.9,93.2c-1.1-0.3-1.3-0.4-1.3-0.8c0-0.3,0.3-0.5,0.8-0.5s1,0.2,1.6,0.6l0.7-1c-0.6-0.5-1.4-0.8-2.3-0.8
		c-1.2,0-2.1,0.7-2.1,1.8c0,1.2,0.8,1.5,2,1.9c1,0.3,1.2,0.4,1.2,0.8s-0.3,0.6-0.9,0.6c-0.7,0-1.3-0.3-1.8-0.7L118,96
		c0.7,0.6,1.7,1,2.6,1c1.3,0,2.2-0.7,2.2-1.9C122.8,93.9,122.1,93.5,120.9,93.2z"/>
	<rect x="57.3" y="78.8" class="st0" width="65.3" height="0.7"/>
	<path class="st1" d="M122.5,65.6V48.3h-2.9c-0.3,0.4-0.1,2.2-1,2.6c-3.1-0.7-0.3-1.1-1.4-2.6c-0.1,0-1.4,0-1.5,0
		c0.1,0,0.7,0.6-0.1,1.3c-1.2,7.3,0.8,10.3-0.2,16H122.5z"/>
	<path class="st1" d="M75.8,53.7c1.2-0.6,1.2-1.8,1.2-2.6c-0.4-0.4-1.8-0.4-2.3-0.3c-0.8,0.6-0.1,1.8-0.6,2.6
		C74.5,54,75.3,53.5,75.8,53.7z"/>
	<path class="st1" d="M87.6,48.3h-3.2c-1,0.3-0.3,3-1.3,3.1c-0.3-0.7-0.2-1.6-1.1-3.1h-1.7c0.1,1.1,0,1.2-0.1,1.3
		c-0.6,0-0.5-0.9-1.3-0.4c-0.6-0.1-0.8,0.9-1.5,0.7c-0.2-0.6-0.9-1.3-1.6-0.8c0.6,1.3,3.7,1.9,2.3,4.1c-0.3,0.6-0.1,1.6-0.8,1.9
		c-1.4-0.4-2.7-0.9-4.1-1.3c0.1,0.6-0.3,1.3-0.1,1.8c1.5,0.2,1.9,1.7,3.2,2.2c0.3,0.2,0.4,0.4,0.3,0.8c-0.9,0.4-1.8-0.4-2.7-0.8
		c-0.2,0.1-0.1,0.3-0.1,0.4c0.8,0.9,3.3,0.5,2.5,2.4c-0.7,1.5-0.5,4.1-2.9,4.3c-0.2,0.5,0.4,0.4,0.5,0.6c2,0.2,4.1-1.7,5.8-0.1
		c0.6,0,1.3-0.4,1.7,0.1h5c0.9-1.8,0.2-3,0.3-4.7c0.1-0.4-1.2-0.9-2.1-0.6c-0.2-0.1-0.1-0.4-0.1-0.6c0.6-0.8,3.2,0.4,2.7-1.4
		c0-0.1,0-0.5-0.3-0.5c-0.8,0-1.5,1.2-2.3,0.7c0.4-1.2,1.3-2.1,1.7-3.2C87,53.7,88.1,50.3,87.6,48.3z M81.9,50.5l-0.1,1.8
		c-0.1,0.3-0.3,0.8-0.8,0.6c-0.6,0.1-0.3-0.6-0.4-0.9C81.2,51.6,81.3,50.6,81.9,50.5z M81.9,55.8c-0.5,0.4-1.4,0.2-1.9,0.1
		c0.1-0.2,0.2-0.5,0.2-0.7c0.4-0.3,0.7-0.9,1.4-0.7C81.9,54.8,82,55.2,81.9,55.8z M79.6,50.7c0.1-0.7,0.9-0.4,1.3-0.6l0.1,0.3
		c-0.4,0.3-0.7,1-1.4,0.8V50.7z M79.5,58c0.8,0.2,1.7-0.4,2.3,0.2c-0.3,0.6-0.3,1.5-1.2,0.9c-0.4-0.3-1.3-0.2-1.3-0.9L79.5,58z
		 M78.5,50.2c0.1-0.2,0.4-0.7,0.8-0.5c0,0.4-0.2,1-0.8,0.7V50.2z M77.9,57.1c0.5-0.3,1.2-0.2,1.1,0.7h-0.8
		C78,57.7,77.8,57.5,77.9,57.1z M73.8,54.6c0.8,0.2,1.5,0.7,2.4,1v0.3h-0.4C75.2,55.7,73.8,55.4,73.8,54.6z M75.9,56.8
		c0.2-0.3,0.5-0.2,0.7-0.2c0.1,0.6,1.1-0.1,0.7,0.7h-0.1C76.8,57.5,76.1,57.3,75.9,56.8z M77.2,63.9c-0.7-1.3,0.1-3.4,0.3-4.6
		c0.1-0.1,0.3-0.4,0.6-0.3c0.2,0.7-0.8,1.1-0.1,1.7c0.7-0.2,1.6,0.4,2.3-0.1c-0.4-0.6-1.1-0.3-1.6-0.5v-0.3l1.5-0.1
		c0.2,0.3,1.3,0.6,1.1,1.2C80.3,62.3,78.5,63.1,77.2,63.9z M83.9,62.3c0.3,0.7,0.3,1.5,0,2.1l-3.4,0.1v-0.4c0.6-0.8,1.3-1.3,2-1.8
		l0.3,0.1C83.2,62.4,83.6,62.4,83.9,62.3c-0.1-0.2-0.2-0.5-0.4-0.6c-0.4,0.2-0.7,0.4-1.1,0.6l-0.6-0.2c-0.9-0.7,1.4-1.7,1.7-1.9
		l0.9,1.5C84.4,62,84.2,62.2,83.9,62.3z M85.1,54.8c0.1,0.4-0.2,0.6-0.4,0.8c-1,0.4-1.5-0.6-2.2-1.2c-0.6-1.8,2-2.6,2.9-3.8l1.3,0.7
		c-0.1,1.3-2.5,1.5-2.4,2.9C84.5,54.4,84.8,54.8,85.1,54.8z"/>
	<path class="st1" d="M59.8,53c2.6,0.3,4.9-0.1,7.5-0.3c-0.3-0.1-0.6-0.2-0.9-0.1c-0.5-0.3-0.7-0.6-0.6-1.1c0.7-0.7,2-0.1,2.8-0.6
		c0.7,0.3,0.2,1.1,0.4,1.5c0,0.2-0.1,0.2-0.2,0.3c0.8,0,1.7,0,2.6,0.1v-2.6c-3.9-0.2-6.7,0.1-9.2,0c-3.2-0.2-4.9,0.1-4.9,0.1v2.5
		h0.6C58.6,53,59.1,53,59.8,53z"/>
	<path class="st1" d="M91.9,49.3c1.3,0.3,2.6,0.5,4,0.5v-1.5h-5.7c0,1.2-0.9,2.9-0.9,2.9c0.5,0,1,0,1.4,0.2v0.3
		c-0.5-0.1-0.9-0.2-1.4-0.2v4.9h0.6c0,0.1,0.1,0.2,0.1,0.3L89.9,57h-0.6v0.6c0.2,0,0.4,0.1,0.6,0v0.1c0.3,0.1,0.5,0.4,0.9,0.2v0.3
		h-0.7c-0.1,0-0.3,0-0.4-0.1c-0.1,0.1-0.3,0.1-0.5,0.1v0.5c0.5-0.2,1.2,0,1.6,0c0.1,0.1,0.2,0.2,0.1,0.3l-0.1,0.2
		c-0.5-0.2-1.1-0.1-1.6-0.1v3.8c0.2,0,0.4,0.1,0.5,0.1c0.1,0.1,0.2,0.2,0.2,0.4c-0.1,0.1-0.4,0.2-0.6,0.1v2.1h6.6v-2.1
		c-0.2,0-0.9,0.1-1.1,0c0-0.2,0.7-1.5,0.8-1.5l0.2-2.8c-0.5,0.1-1.1,0-1.6,0.1L94.1,59c0-0.1,0.1-0.2,0.1-0.3c0.5,0,1.1-0.2,1.6,0
		v-0.5c-0.3,0-0.6,0-0.7-0.2c0-0.1,0.1-0.2,0.1-0.3c0.2,0.1,0.4,0,0.6,0V57h-0.6l-0.1-0.2c0-0.1,0.1-0.2,0.1-0.3h0.6v-4.9
		c-0.5,0-0.9,0.1-1.4,0.2v-0.4c0.4-0.2,0.9-0.2,1.4-0.2v-1c-1.2-0.1-2.3-0.2-3.4-0.3c-0.3-0.1-0.7-0.1-0.9-0.4
		C91.6,49.3,91.7,49.3,91.9,49.3z M90.1,52.3H91v0.3h-0.9V52.3z M91.5,53.5c-0.4,0.3-0.8,0.4-1.3,0.5L90,53.2
		C90.5,53.1,91.3,52.9,91.5,53.5z M89.8,55.3c0.3-0.6,0.9-0.2,1.3-0.3c0.2,0.2,0.5,0,0.5,0.4C91,55.6,90.3,55.7,89.8,55.3z M89.5,61
		v-0.3h1.1V61H89.5z M90.4,63.4v-0.7c0.5-0.3,1,0.3,1.4-0.6c0.6,0.1,1.1-0.8,1.7-0.5v0.8C92.5,62.8,91.5,63.9,90.4,63.4z M92.3,60.3
		c0.1-0.8,0.7-0.7,0.9-0.8v0.9C92.9,60.4,92.5,60.5,92.3,60.3z M94.5,64.6c-0.4,0.9-1.1,0.2-1.6,0c-0.4-0.2-0.7,1-1.1,0.2
		c0-0.2,0.1-0.3,0.1-0.5C92.8,63.7,93.7,64.2,94.5,64.6z M95.4,52.9v1c-0.5-0.1-1,0.1-1.4-0.2C94.2,53.1,95,53.1,95.4,52.9z
		 M93.6,57.1h-1.7v-0.6h1.7V57.1z M93.1,53.2c-0.3,0.3-0.5-0.4-0.8-0.5l0.3-0.3C92.9,52.6,93.4,52.6,93.1,53.2z M92.6,51.2l-0.5,0.5
		c-0.2,0-0.5-0.6-0.6-0.8C91.7,50.7,92.5,50.9,92.6,51.2z"/>
	<path class="st1" d="M62.7,49.4c2.8,0,5.9-0.2,8.7,0v-1.1H57.3c0,0.4,0,1.1,0,1.1C59.1,49.1,61.3,49.4,62.7,49.4z"/>
	<path class="st1" d="M71.5,53.4c-3.7-0.4-6.9,1.4-10.9,1.1c-0.8,0-1.7-0.8-2.5-1h-0.4l-0.4,0.1v12h14.2
		C71.5,65.6,71.5,53.4,71.5,53.4z"/>
	<path class="st1" d="M113.6,57.6c-0.8-2,1.1-8.7-2-9.2c-0.3,0-0.6,0.1-0.9,0.3c0.5,0.4,0.9,0.9,1,1.6c-0.7,1.6-2.2-0.4-3.2,0.2v1.3
		c-0.4,0.4-0.7,0.8-1.3,0.6c-0.4-0.4-0.8-0.7-0.7-1.3c0.6-0.8,1.4-0.5,2-0.9c-1.1-0.3-0.9-1.9-2.6-1.9h-3.3c-1.5,0.5-3.4,1.3-5.1,0
		l0.3,2.1l0.2,0.7v0.6l0.8,0.7L98,53.2l0.3,1.7c0.6,0.2,1.3,0.2,1.3,0.8c-0.1,0.9-0.8,1.9-0.8,2.9c0,1.2,0.6,5.9,0.6,7.1
		c0.6-0.1,3.6-0.2,4.2-0.5l0.8,0.5c1.1,0.1,2.5,0.4,2.1-1.5l-0.8-4.9c-0.9-2.5,0.8-3.1,1.3-3.2l0.4,0.4c-0.2,0.5-0.2,1-0.3,1.4
		c0.1,0.2,0.2,0.4,0.1,0.7c0,0.3,0,0.5-0.1,0.6c0.2,2.3,1.3,4.3,1.3,6.4h2.8l1-0.8l-0.2-2l0.1-1.9l-0.1-3.5c0.4,0.1,0.9,0.2,1.4,0.4
		L113.6,57.6z M99.6,52c-0.6-0.5-0.9-1.1-0.8-1.8c0.4-0.8,1.5-0.6,2.1-0.2c0.4,0.6,1.1,1.2,0,1.5C101,52.8,100,52.6,99.6,52z
		 M102.8,63.1V62l-0.8-0.8l-0.4-1.2c-0.4-1.8,0.1-3.8,0.4-4.5c-0.3-0.1-0.8,0.2-0.9-0.2c0.3-0.4-0.1-1.1,0.3-1.5
		c0.3-0.1,1.1,0,1.3,0.2c0,0.4,0,0.9-0.4,1.2c0.3-0.1,0.7,0,1,0.2c-0.1,3.4,0.2,5.7,0.5,8.8L102.8,63.1z M103.6,52.3
		c-0.4-0.2-0.9-1-0.6-1.7c0.3-0.3,0.5-0.6,1-0.5c0.2,0.4,1,0.6,0.8,1.3C104.9,52.2,104,52.3,103.6,52.3z M105,54.8
		c-0.4-0.3-0.3-0.8-0.4-1.3c0.1-0.3,0.9-0.5,1.3-0.4c0.2,0.2,0.7,0.5,0.6,0.8C106.4,54.4,105.8,55,105,54.8z M107.7,54.8
		c0.2-0.2,0.8-0.6,1.1-0.5c0.4,0.1,0.6,0.8,0.4,1.3c0,0.4-0.4,0.3-0.7,0.3C108.1,55.7,107.5,55.3,107.7,54.8z M109.8,62.6
		c-0.4,0.4-0.2,2.2-1.1,1.3c-0.9-2.4,0.3-4,0.5-6.2c0.5-0.6,1.1-0.8,1.4-0.7c0.1,0,0.5,1.1,0.6,1.1c0.1,1.5-0.8,1.5,0.1,4
		C111.1,62.5,110.1,62.3,109.8,62.6z M111.8,56.3c-0.3,0-1.1-0.1-1.1-0.6c-0.1-0.5-0.1-1.2,1-1C112.5,54.9,112.9,56.1,111.8,56.3z"
		/>
	<path class="st0" d="M102.5,34.7c-0.9,0.2-1.2,0.3-1.3,1.3c0,0.3,0.1,0.6,0.2,0.8c0.2,0.2,0.5,0.3,0.8,0.3c0.9,0,1.4-0.8,1.5-1.5
		c0-0.2,0-0.4,0-0.6c0-0.1,0-0.2,0-0.2v-0.1v-0.3l-0.5,0.1C103,34.5,102.8,34.6,102.5,34.7z"/>
	<path class="st0" d="M97.1,29.9c-0.6-0.1-1.5,0-1.9,0v3.2c0.4,0,0.9,0,1.3,0c1.3-0.1,2.1-0.8,2.1-1.8C98.5,30.5,98,29.9,97.1,29.9z
		"/>
	<path class="st0" d="M122.6,0.4L122.6,0.4H57.3v44.9h65.3C122.6,45.3,122.6,0.4,122.6,0.4z M101.2,20.4L101.2,20.4
		c0.1-1.2,1.2-2.2,2.4-2.2h3c1.3,0,2.3,1,2.3,2.2v4.9c0,1.3-1,2.3-2.3,2.3h-3.2c-1.2,0-2.2-1-2.2-2.3
		C101.2,25.3,101.2,20.4,101.2,20.4z M67.7,19c0,0.4-0.3,0.6-0.7,0.6h-2.5v7.2c0,0.4-0.3,0.7-0.7,0.7h-0.3c-0.4,0-0.7-0.3-0.7-0.7
		v-7.2h-2.5c-0.4,0-0.7-0.3-0.7-0.6v-0.2c0-0.4,0.3-0.6,0.7-0.6H67c0.4,0,0.7,0.3,0.7,0.6V19z M76,26.9c0,0.4-0.3,0.7-0.7,0.7h-6
		c-0.4,0-0.6-0.3-0.6-0.6v-8.1c0-0.4,0.3-0.6,0.7-0.6H75c0.4,0,0.7,0.3,0.7,0.6V19c0,0.4-0.3,0.6-0.7,0.6h-4.7v2.5h4.3
		c0.4,0,0.7,0.3,0.7,0.6V23c0,0.4-0.3,0.6-0.7,0.6h-4.3V26h5c0.4,0,0.7,0.3,0.7,0.6V26.9z M84.2,26.9L84.2,26.9
		c-0.1,0.4-0.4,0.7-0.8,0.7h-6.1v-8.7c0-0.4,0.3-0.7,0.7-0.7h0.3c0.4,0,0.7,0.3,0.7,0.7V26h4.5c0.4,0,0.7,0.3,0.7,0.6V26.9z
		 M92.2,26.9L92.2,26.9c-0.1,0.4-0.4,0.7-0.8,0.7h-6c-0.4,0-0.6-0.3-0.6-0.6v-8.1c0-0.4,0.3-0.6,0.7-0.6h5.7c0.4,0,0.7,0.3,0.7,0.6
		V19c0,0.4-0.3,0.6-0.7,0.6h-4.7v2.5h4.3c0.4,0,0.7,0.3,0.7,0.6V23c0,0.4-0.3,0.6-0.7,0.6h-4.3V26h5c0.4,0,0.7,0.3,0.7,0.6V26.9z
		 M93.4,20.4c0-1.2,1.1-2.2,2.3-2.2h3.5c0.4,0,0.7,0.3,0.7,0.6V19c0,0.4-0.3,0.6-0.7,0.6h-3c-0.8,0-1.2,0.4-1.2,1.2v4.1
		c0,0.7,0.4,1.1,1.2,1.1h3.2c0.4,0,0.7,0.3,0.7,0.6v0.2c0,0.4-0.3,0.7-0.7,0.7h-3.8c-1.2,0-2.2-1-2.2-2.3V20.4z M97,33.7
		c-0.5,0.1-1.1,0.1-1.6,0c-0.1,0-0.2,0-0.3,0v3.7H95c-0.1,0-0.2,0-0.3,0c-0.1,0-0.2,0-0.3,0c-0.2,0-0.4,0-0.6,0h-0.1v-8.2h2.6
		c2.8,0,3.7,0.5,3.7,2C100,32.6,99.1,33.3,97,33.7z M103.6,37.4v-0.7c-0.4,0.6-1.2,0.8-1.9,0.8h-0.1c-1,0-1.9-0.7-1.8-1.5
		c0.1-1.3,1.1-1.5,2.1-1.7c0.1,0,0.2,0,0.3-0.1l0.3-0.1c0.6-0.1,0.7-0.1,1.1-0.3l0.1-0.1V33c0-0.5-0.1-1-1.1-1.1
		c-0.9-0.1-1.1,0.5-1.4,1l-0.4,0.9h-0.4v-1.9h0.1c0.3-0.1,0.7-0.3,1.2-0.3h0.1c0.3,0,0.5-0.1,0.9-0.1c2.1,0.1,2.3,1,2.3,2V37h0.6
		v0.4H103.6z M110.8,34L110.8,34h-0.6l-0.4-1c-0.1-0.4-0.3-0.8-0.5-0.8c-0.1,0-0.1,0-0.2,0c-0.9,0.4-0.9,1.4-0.9,2.5V37h0.9v0.3H109
		v0.1h-2.8V37h0.7v-4.9h-0.7v-0.4h2v0.8c0.3-0.4,0.9-0.8,1.6-0.8c0.3,0,0.5,0.1,0.9,0.2h0.1C110.8,31.9,110.8,34,110.8,34z
		 M111.3,37.4V37h0.7v-4.9h-0.7v-0.4h2V37h0.6v0.4H111.3z M111.7,30.5c0-0.4,0.4-0.7,0.8-0.7s0.8,0.3,0.8,0.7s-0.4,0.7-0.8,0.7
		S111.7,30.9,111.7,30.5z M114.2,23.5l-1.6-2.5v5.8c0,0.4-0.3,0.7-0.7,0.7h-0.3c-0.4,0-0.7-0.3-0.7-0.7v-8.1c0-0.4,0.3-0.6,0.6-0.6
		h0.4c0.3,0,0.5,0.2,0.7,0.5l2.5,3.6l2.5-3.6c0.2-0.2,0.4-0.5,0.7-0.5h0.4c0.4,0,0.6,0.3,0.6,0.6v8.1c0,0.4-0.3,0.7-0.7,0.7h-0.3
		c-0.4,0-0.7-0.3-0.7-0.7V21l-1.8,2.5c-0.1,0.2-0.3,0.5-0.7,0.5h-0.2C114.5,24,114.4,23.8,114.2,23.5z M116.9,37.5
		c-0.9,0-1.8-0.3-2.2-0.5v-2h0.4l0.3,1c0.3,0.9,0.6,1,1.2,1h0.1c0.6,0.1,1.2-0.1,1.5-0.4c0.2-0.1,0.3-0.3,0.3-0.5
		c0.1-0.7-0.9-0.9-1.7-1.1c-0.1,0-0.3-0.1-0.4-0.1c-0.7-0.2-1.9-0.6-1.9-1.7c0-1.2,1.5-1.7,2.5-1.7c0.7,0,1.5,0.2,1.8,0.4h0.1v1.8
		h-0.5l-0.2-0.7c-0.3-0.9-0.6-1.1-1.3-1.1s-1.5,0.2-1.5,0.8c0,0.5,0.7,0.8,1.4,0.9h0.1c1.2,0.3,2.6,0.7,2.5,1.9
		C119.5,36.8,118.4,37.5,116.9,37.5z"/>
	<path class="st0" d="M103.9,26h2.5c0.5,0,1-0.4,1-1v-4.5c0-0.5-0.5-1-1-1h-2.5c-0.5,0-1,0.4-1,1V25C102.9,25.6,103.4,26,103.9,26z"
		/>
</g>
</svg>
